@startuml

title View Contact Sequence Diagram



User -> ContactsView: clicks contact to view
ContactsView -> ContactsPresenter : onClick(clickEvent)
ContactsPresenter -> ContactsView : getClickedRow(clickEvent)
return row
collections ContactDetails
ContactsPresenter -> ContactDetails : get(row).getId()
return id

note over ContactsPresenter, ContactDetails
ContactsPresenter fires an EditContactEvent
that creates the presenter
end note
ContactsPresenter -> EditContactPresenter : show()
EditContactPresenter --> ContactsView: shows edit contact dialog
ContactsView --> User: shows edit contact dialog
User -> ContactsView: clicks the cancel button
ContactsView -> EditContactPresenter: onClick(clickEvent)
note right
fires an
EditContactCancelledEvent
end note
EditContactPresenter --> ContactsView: hides edit contact dialog
ContactsView --> User: shows contacts

@enduml